{
   "10189435": {
      "stop_code": "",
      "stop_name": "EDF",
      "stop_desc": "",
      "stop_lat": 44.44792873,
      "stop_lon": 1.43272772,
      "zone_id": "",
      "stop_url": "",
      "location_type": 0,
      "parent_station": null,
      "stop_timezone": "",
      "wheelchair_boarding": 0,
      "import_id": "",
      "city_name": "",
      "direction_id": "",
      "ext_id": ""
   },
   "10189437": {
      "stop_code": "",
      "stop_name": "Gare SNCF",
      "stop_desc": "",
      "stop_lat": 44.448742,
      "stop_lon": 1.434459,
      "zone_id": "",
      "stop_url": "",
      "location_type": 0,
      "parent_station": null,
      "stop_timezone": "",
      "wheelchair_boarding": 0,
      "import_id": "",
      "city_name": "",
      "direction_id": "",
      "ext_id": ""
   },
   "10189438": {
      "stop_code": "",
      "stop_name": "Murat",
      "stop_desc": "",
      "stop_lat": 44.448347,
      "stop_lon": 1.439945,
      "zone_id": "",
      "stop_url": "",
      "location_type": 0,
      "parent_station": null,
      "stop_timezone": "",
      "wheelchair_boarding": 0,
      "import_id": "",
      "city_name": "",
      "direction_id": "",
      "ext_id": ""
   },
   "10189439": {
      "stop_code": "",
      "stop_name": "Palais de Justice",
      "stop_desc": "",
      "stop_lat": 44.44858287,
      "stop_lon": 1.43999817,
      "zone_id": "",
      "stop_url": "",
      "location_type": 0,
      "parent_station": null,
      "stop_timezone": "",
      "wheelchair_boarding": 0,
      "import_id": "",
      "city_name": "",
      "direction_id": "",
      "ext_id": ""
   },
   "10189440": {
      "stop_code": "",
      "stop_name": "Place de la Libération",
      "stop_desc": "",
      "stop_lat": 44.44837796,
      "stop_lon": 1.44219106,
      "zone_id": "",
      "stop_url": "",
      "location_type": 0,
      "parent_station": null,
      "stop_timezone": "",
      "wheelchair_boarding": 0,
      "import_id": "",
      "city_name": "",
      "direction_id": "",
      "ext_id": ""
   },
   "10189441": {
      "stop_code": "",
      "stop_name": "Cathédrale",
      "stop_desc": "",
      "stop_lat": 44.447624,
      "stop_lon": 1.444227,
      "zone_id": "",
      "stop_url": "",
      "location_type": 0,
      "parent_station": null,
      "stop_timezone": "",
      "wheelchair_boarding": 0,
      "import_id": "",
      "city_name": "",
      "direction_id": "",
      "ext_id": ""
   },
   "10189442": {
      "stop_code": "",
      "stop_name": "Saint-Urcisse",
      "stop_desc": "",
      "stop_lat": 44.44574299,
      "stop_lon": 1.44539973,
      "zone_id": "",
      "stop_url": "",
      "location_type": 0,
      "parent_station": null,
      "stop_timezone": "",
      "wheelchair_boarding": 0,
      "import_id": "",
      "city_name": "",
      "direction_id": "",
      "ext_id": ""
   },
   "10189443": {
      "stop_code": "",
      "stop_name": "Acacias",
      "stop_desc": "",
      "stop_lat": 44.44287438,
      "stop_lon": 1.44368293,
      "zone_id": "",
      "stop_url": "",
      "location_type": 0,
      "parent_station": null,
      "stop_timezone": "",
      "wheelchair_boarding": 0,
      "import_id": "",
      "city_name": "",
      "direction_id": "",
      "ext_id": ""
   },
   "10189444": {
      "stop_code": "",
      "stop_name": "Carmes",
      "stop_desc": "",
      "stop_lat": 44.44310176,
      "stop_lon": 1.44204333,
      "zone_id": "",
      "stop_url": "",
      "location_type": 0,
      "parent_station": null,
      "stop_timezone": "",
      "wheelchair_boarding": 0,
      "import_id": "",
      "city_name": "",
      "direction_id": "",
      "ext_id": ""
   },
   "10189446": {
      "stop_code": "",
      "stop_name": "Victor Hugo",
      "stop_desc": "",
      "stop_lat": 44.44357556,
      "stop_lon": 1.44019488,
      "zone_id": "",
      "stop_url": "",
      "location_type": 0,
      "parent_station": null,
      "stop_timezone": "",
      "wheelchair_boarding": 0,
      "import_id": "",
      "city_name": "",
      "direction_id": "",
      "ext_id": ""
   },
   "10189447": {
      "stop_code": "",
      "stop_name": "Bergon",
      "stop_desc": "",
      "stop_lat": 44.4444417,
      "stop_lon": 1.43750958,
      "zone_id": "",
      "stop_url": "",
      "location_type": 0,
      "parent_station": null,
      "stop_timezone": "",
      "wheelchair_boarding": 0,
      "import_id": "",
      "city_name": "",
      "direction_id": "",
      "ext_id": ""
   },
   "10189448": {
      "stop_code": "",
      "stop_name": "Hôpital",
      "stop_desc": "",
      "stop_lat": 44.44570593,
      "stop_lon": 1.43724541,
      "zone_id": "",
      "stop_url": "",
      "location_type": 0,
      "parent_station": null,
      "stop_timezone": "",
      "wheelchair_boarding": 0,
      "import_id": "",
      "city_name": "",
      "direction_id": "",
      "ext_id": ""
   },
   "10189450": {
      "stop_code": "",
      "stop_name": "Pont Valentré",
      "stop_desc": "",
      "stop_lat": 44.4452716,
      "stop_lon": 1.43349969,
      "zone_id": "",
      "stop_url": "",
      "location_type": 0,
      "parent_station": null,
      "stop_timezone": "",
      "wheelchair_boarding": 0,
      "import_id": "",
      "city_name": "",
      "direction_id": "",
      "ext_id": ""
   },
   "10189451": {
      "stop_code": "",
      "stop_name": "Sindou",
      "stop_desc": "",
      "stop_lat": 44.44415519,
      "stop_lon": 1.4350692,
      "zone_id": "",
      "stop_url": "",
      "location_type": 0,
      "parent_station": null,
      "stop_timezone": "",
      "wheelchair_boarding": 0,
      "import_id": "",
      "city_name": "",
      "direction_id": "",
      "ext_id": ""
   },
   "10189452": {
      "stop_code": "",
      "stop_name": "Mairie de Cahors",
      "stop_desc": "",
      "stop_lat": 44.446173,
      "stop_lon": 1.441071,
      "zone_id": "",
      "stop_url": "",
      "location_type": 0,
      "parent_station": 10479764,
      "stop_timezone": "",
      "wheelchair_boarding": 0,
      "import_id": "",
      "city_name": "",
      "direction_id": "",
      "ext_id": ""
   },
   "10189454": {
      "stop_code": "",
      "stop_name": "De Gaulle",
      "stop_desc": "",
      "stop_lat": 44.45071277,
      "stop_lon": 1.44003506,
      "zone_id": "",
      "stop_url": "",
      "location_type": 0,
      "parent_station": null,
      "stop_timezone": "",
      "wheelchair_boarding": 0,
      "import_id": "",
      "city_name": "",
      "direction_id": "",
      "ext_id": ""
   },
   "10189456": {
      "stop_code": "",
      "stop_name": "Barbacane",
      "stop_desc": "",
      "stop_lat": 44.45424119,
      "stop_lon": 1.43888008,
      "zone_id": "",
      "stop_url": "",
      "location_type": 0,
      "parent_station": null,
      "stop_timezone": "",
      "wheelchair_boarding": 0,
      "import_id": "",
      "city_name": "",
      "direction_id": "",
      "ext_id": ""
   },
   "10189457": {
      "stop_code": "",
      "stop_name": "Ségala",
      "stop_desc": "",
      "stop_lat": 44.45596858,
      "stop_lon": 1.43735273,
      "zone_id": "",
      "stop_url": "",
      "location_type": 0,
      "parent_station": null,
      "stop_timezone": "",
      "wheelchair_boarding": 0,
      "import_id": "",
      "city_name": "",
      "direction_id": "",
      "ext_id": ""
   },
   "10189458": {
      "stop_code": "",
      "stop_name": "Branly",
      "stop_desc": "",
      "stop_lat": 44.45703895,
      "stop_lon": 1.43558982,
      "zone_id": "",
      "stop_url": "",
      "location_type": 0,
      "parent_station": null,
      "stop_timezone": "",
      "wheelchair_boarding": 0,
      "import_id": "",
      "city_name": "",
      "direction_id": "",
      "ext_id": ""
   },
   "10189459": {
      "stop_code": "",
      "stop_name": "Clinique",
      "stop_desc": "",
      "stop_lat": 44.45776932,
      "stop_lon": 1.43633922,
      "zone_id": "",
      "stop_url": "",
      "location_type": 0,
      "parent_station": null,
      "stop_timezone": "",
      "wheelchair_boarding": 0,
      "import_id": "",
      "city_name": "",
      "direction_id": "",
      "ext_id": ""
   },
   "10189460": {
      "stop_code": "",
      "stop_name": "Bellevue",
      "stop_desc": "",
      "stop_lat": 44.46012063,
      "stop_lon": 1.43629204,
      "zone_id": "",
      "stop_url": "",
      "location_type": 0,
      "parent_station": null,
      "stop_timezone": "",
      "wheelchair_boarding": 0,
      "import_id": "",
      "city_name": "",
      "direction_id": "",
      "ext_id": ""
   },
   "10189461": {
      "stop_code": "",
      "stop_name": "Lamothe",
      "stop_desc": "",
      "stop_lat": 44.46216,
      "stop_lon": 1.43538,
      "zone_id": "",
      "stop_url": "",
      "location_type": 0,
      "parent_station": null,
      "stop_timezone": "",
      "wheelchair_boarding": 0,
      "import_id": "",
      "city_name": "",
      "direction_id": "",
      "ext_id": ""
   },
   "10189462": {
      "stop_code": "",
      "stop_name": "MSA",
      "stop_desc": "",
      "stop_lat": 44.463189,
      "stop_lon": 1.436616,
      "zone_id": "",
      "stop_url": "",
      "location_type": 0,
      "parent_station": null,
      "stop_timezone": "",
      "wheelchair_boarding": 0,
      "import_id": "",
      "city_name": "",
      "direction_id": "",
      "ext_id": ""
   },
   "10189463": {
      "stop_code": "",
      "stop_name": "Le Failhal",
      "stop_desc": "",
      "stop_lat": 44.46563111,
      "stop_lon": 1.43908483,
      "zone_id": "",
      "stop_url": "",
      "location_type": 0,
      "parent_station": null,
      "stop_timezone": "",
      "wheelchair_boarding": 0,
      "import_id": "",
      "city_name": "",
      "direction_id": "",
      "ext_id": ""
   },
   "10189464": {
      "stop_code": "",
      "stop_name": "Daudet",
      "stop_desc": "",
      "stop_lat": 44.46276017,
      "stop_lon": 1.43223877,
      "zone_id": "",
      "stop_url": "",
      "location_type": 0,
      "parent_station": null,
      "stop_timezone": "",
      "wheelchair_boarding": 0,
      "import_id": "",
      "city_name": "",
      "direction_id": "",
      "ext_id": ""
   },
   "10189465": {
      "stop_code": "",
      "stop_name": "Jean Moulin",
      "stop_desc": "",
      "stop_lat": 44.46384888,
      "stop_lon": 1.43149462,
      "zone_id": "",
      "stop_url": "",
      "location_type": 0,
      "parent_station": null,
      "stop_timezone": "",
      "wheelchair_boarding": 0,
      "import_id": "",
      "city_name": "",
      "direction_id": "",
      "ext_id": ""
   },
   "10189466": {
      "stop_code": "",
      "stop_name": "Lamartine",
      "stop_desc": "",
      "stop_lat": 44.46398018,
      "stop_lon": 1.42904564,
      "zone_id": "",
      "stop_url": "",
      "location_type": 0,
      "parent_station": null,
      "stop_timezone": "",
      "wheelchair_boarding": 0,
      "import_id": "",
      "city_name": "",
      "direction_id": "",
      "ext_id": ""
   },
   "10189467": {
      "stop_code": "",
      "stop_name": "Regourd",
      "stop_desc": "",
      "stop_lat": 44.46689261,
      "stop_lon": 1.42831457,
      "zone_id": "",
      "stop_url": "",
      "location_type": 0,
      "parent_station": null,
      "stop_timezone": "",
      "wheelchair_boarding": 0,
      "import_id": "",
      "city_name": "",
      "direction_id": "",
      "ext_id": ""
   },
   "10189468": {
      "stop_code": "",
      "stop_name": "MAEC",
      "stop_desc": "",
      "stop_lat": 44.4685275,
      "stop_lon": 1.42791965,
      "zone_id": "",
      "stop_url": "",
      "location_type": 0,
      "parent_station": null,
      "stop_timezone": "",
      "wheelchair_boarding": 0,
      "import_id": "",
      "city_name": "",
      "direction_id": "",
      "ext_id": ""
   },
   "10189470": {
      "stop_code": "",
      "stop_name": "Combe du Paysan",
      "stop_desc": "",
      "stop_lat": 44.46930799,
      "stop_lon": 1.43066483,
      "zone_id": "",
      "stop_url": "",
      "location_type": 0,
      "parent_station": null,
      "stop_timezone": "",
      "wheelchair_boarding": 0,
      "import_id": "",
      "city_name": "",
      "direction_id": "",
      "ext_id": ""
   },
   "10189471": {
      "stop_code": "",
      "stop_name": "Arnaud Béraldi",
      "stop_desc": "",
      "stop_lat": 44.46835668,
      "stop_lon": 1.42021827,
      "zone_id": "",
      "stop_url": "",
      "location_type": 0,
      "parent_station": null,
      "stop_timezone": "",
      "wheelchair_boarding": 0,
      "import_id": "",
      "city_name": "",
      "direction_id": "",
      "ext_id": ""
   },
   "10189473": {
      "stop_code": "",
      "stop_name": "Église de Labéraudie",
      "stop_desc": "",
      "stop_lat": 44.46669593,
      "stop_lon": 1.4190338,
      "zone_id": "",
      "stop_url": "",
      "location_type": 0,
      "parent_station": null,
      "stop_timezone": "",
      "wheelchair_boarding": 0,
      "import_id": "",
      "city_name": "",
      "direction_id": "",
      "ext_id": ""
   },
   "10189474": {
      "stop_code": "",
      "stop_name": "Moulin de Labéraudie",
      "stop_desc": "",
      "stop_lat": 44.46315693,
      "stop_lon": 1.41936715,
      "zone_id": "",
      "stop_url": "",
      "location_type": 0,
      "parent_station": null,
      "stop_timezone": "",
      "wheelchair_boarding": 0,
      "import_id": "",
      "city_name": "",
      "direction_id": "",
      "ext_id": ""
   },
   "10189475": {
      "stop_code": "",
      "stop_name": "Minoterie",
      "stop_desc": "",
      "stop_lat": 44.460757,
      "stop_lon": 1.423067,
      "zone_id": "",
      "stop_url": "",
      "location_type": 0,
      "parent_station": null,
      "stop_timezone": "",
      "wheelchair_boarding": 0,
      "import_id": "",
      "city_name": "",
      "direction_id": "",
      "ext_id": ""
   },
   "10189476": {
      "stop_code": "",
      "stop_name": "Croix de Fer",
      "stop_desc": "",
      "stop_lat": 44.458241,
      "stop_lon": 1.425222,
      "zone_id": "",
      "stop_url": "",
      "location_type": 0,
      "parent_station": null,
      "stop_timezone": "",
      "wheelchair_boarding": 0,
      "import_id": "",
      "city_name": "",
      "direction_id": "",
      "ext_id": ""
   },
   "10189477": {
      "stop_code": "",
      "stop_name": "Les Pins",
      "stop_desc": "",
      "stop_lat": 44.45489,
      "stop_lon": 1.426587,
      "zone_id": "",
      "stop_url": "",
      "location_type": 0,
      "parent_station": null,
      "stop_timezone": "",
      "wheelchair_boarding": 0,
      "import_id": "",
      "city_name": "",
      "direction_id": "",
      "ext_id": ""
   },
   "10189479": {
      "stop_code": "",
      "stop_name": "Plaine du Pal",
      "stop_desc": "",
      "stop_lat": 44.45096025,
      "stop_lon": 1.43147969,
      "zone_id": "",
      "stop_url": "",
      "location_type": 0,
      "parent_station": null,
      "stop_timezone": "",
      "wheelchair_boarding": 0,
      "import_id": "",
      "city_name": "",
      "direction_id": "",
      "ext_id": ""
   },
   "10189480": {
      "stop_code": "",
      "stop_name": "Saint-Mary",
      "stop_desc": "",
      "stop_lat": 44.45427121,
      "stop_lon": 1.43145438,
      "zone_id": "",
      "stop_url": "",
      "location_type": 0,
      "parent_station": null,
      "stop_timezone": "",
      "wheelchair_boarding": 0,
      "import_id": "",
      "city_name": "",
      "direction_id": "",
      "ext_id": ""
   },
   "10189481": {
      "stop_code": "",
      "stop_name": "Remparts",
      "stop_desc": "",
      "stop_lat": 44.45417753,
      "stop_lon": 1.43439182,
      "zone_id": "",
      "stop_url": "",
      "location_type": 0,
      "parent_station": null,
      "stop_timezone": "",
      "wheelchair_boarding": 0,
      "import_id": "",
      "city_name": "",
      "direction_id": "",
      "ext_id": ""
   },
   "10189482": {
      "stop_code": "",
      "stop_name": "Léon Blum",
      "stop_desc": "",
      "stop_lat": 44.45317684,
      "stop_lon": 1.43639509,
      "zone_id": "",
      "stop_url": "",
      "location_type": 0,
      "parent_station": null,
      "stop_timezone": "",
      "wheelchair_boarding": 0,
      "import_id": "",
      "city_name": "",
      "direction_id": "",
      "ext_id": ""
   },
   "10189483": {
      "stop_code": "",
      "stop_name": "Montaigne",
      "stop_desc": "",
      "stop_lat": 44.45631136,
      "stop_lon": 1.43367418,
      "zone_id": "",
      "stop_url": "",
      "location_type": 0,
      "parent_station": null,
      "stop_timezone": "",
      "wheelchair_boarding": 0,
      "import_id": "",
      "city_name": "",
      "direction_id": "",
      "ext_id": ""
   },
   "10189484": {
      "stop_code": "",
      "stop_name": "Sainte-Valérie",
      "stop_desc": "",
      "stop_lat": 44.45886704,
      "stop_lon": 1.43280455,
      "zone_id": "",
      "stop_url": "",
      "location_type": 0,
      "parent_station": null,
      "stop_timezone": "",
      "wheelchair_boarding": 0,
      "import_id": "",
      "city_name": "",
      "direction_id": "",
      "ext_id": ""
   },
   "10189485": {
      "stop_code": "",
      "stop_name": "Churchill",
      "stop_desc": "",
      "stop_lat": 44.4610126,
      "stop_lon": 1.43339381,
      "zone_id": "",
      "stop_url": "",
      "location_type": 0,
      "parent_station": null,
      "stop_timezone": "",
      "wheelchair_boarding": 0,
      "import_id": "",
      "city_name": "",
      "direction_id": "",
      "ext_id": ""
   },
   "10189486": {
      "stop_code": "",
      "stop_name": "P+R Ludo Rolles",
      "stop_desc": "",
      "stop_lat": 44.45380873,
      "stop_lon": 1.44351858,
      "zone_id": "",
      "stop_url": "",
      "location_type": 0,
      "parent_station": null,
      "stop_timezone": "",
      "wheelchair_boarding": 0,
      "import_id": "",
      "city_name": "",
      "direction_id": "",
      "ext_id": ""
   },
   "10189487": {
      "stop_code": "",
      "stop_name": "La Verrerie",
      "stop_desc": "",
      "stop_lat": 44.4508661,
      "stop_lon": 1.44718601,
      "zone_id": "",
      "stop_url": "",
      "location_type": 0,
      "parent_station": null,
      "stop_timezone": "",
      "wheelchair_boarding": 0,
      "import_id": "",
      "city_name": "",
      "direction_id": "",
      "ext_id": ""
   },
   "10189488": {
      "stop_code": "",
      "stop_name": "Jacobins",
      "stop_desc": "",
      "stop_lat": 44.44923545,
      "stop_lon": 1.44603905,
      "zone_id": "",
      "stop_url": "",
      "location_type": 0,
      "parent_station": null,
      "stop_timezone": "",
      "wheelchair_boarding": 0,
      "import_id": "",
      "city_name": "",
      "direction_id": "",
      "ext_id": ""
   },
   "10189489": {
      "stop_code": "",
      "stop_name": "La Fontaine",
      "stop_desc": "",
      "stop_lat": 44.451684,
      "stop_lon": 1.448471,
      "zone_id": "",
      "stop_url": "",
      "location_type": 0,
      "parent_station": null,
      "stop_timezone": "",
      "wheelchair_boarding": 0,
      "import_id": "",
      "city_name": "",
      "direction_id": "",
      "ext_id": ""
   },
   "10189490": {
      "stop_code": "",
      "stop_name": "Maquis",
      "stop_desc": "",
      "stop_lat": 44.454382,
      "stop_lon": 1.448538,
      "zone_id": "",
      "stop_url": "",
      "location_type": 0,
      "parent_station": null,
      "stop_timezone": "",
      "wheelchair_boarding": 0,
      "import_id": "",
      "city_name": "",
      "direction_id": "",
      "ext_id": ""
   },
   "10189491": {
      "stop_code": "",
      "stop_name": "Chapou",
      "stop_desc": "",
      "stop_lat": 44.45425258,
      "stop_lon": 1.44749297,
      "zone_id": "",
      "stop_url": "",
      "location_type": 0,
      "parent_station": null,
      "stop_timezone": "",
      "wheelchair_boarding": 0,
      "import_id": "",
      "city_name": "",
      "direction_id": "",
      "ext_id": ""
   },
   "10189492": {
      "stop_code": "",
      "stop_name": "Lilas",
      "stop_desc": "",
      "stop_lat": 44.45675755,
      "stop_lon": 1.45074766,
      "zone_id": "",
      "stop_url": "",
      "location_type": 0,
      "parent_station": null,
      "stop_timezone": "",
      "wheelchair_boarding": 0,
      "import_id": "",
      "city_name": "",
      "direction_id": "",
      "ext_id": ""
   },
   "10189493": {
      "stop_code": "",
      "stop_name": "Joliot-Curie",
      "stop_desc": "",
      "stop_lat": 44.45938093,
      "stop_lon": 1.44980744,
      "zone_id": "",
      "stop_url": "",
      "location_type": 0,
      "parent_station": null,
      "stop_timezone": "",
      "wheelchair_boarding": 0,
      "import_id": "",
      "city_name": "",
      "direction_id": "",
      "ext_id": ""
   },
   "10189494": {
      "stop_code": "",
      "stop_name": "Corneille",
      "stop_desc": "",
      "stop_lat": 44.46194004,
      "stop_lon": 1.45126088,
      "zone_id": "",
      "stop_url": "",
      "location_type": 0,
      "parent_station": null,
      "stop_timezone": "",
      "wheelchair_boarding": 0,
      "import_id": "",
      "city_name": "",
      "direction_id": "",
      "ext_id": ""
   },
   "10189495": {
      "stop_code": "",
      "stop_name": "Racine",
      "stop_desc": "",
      "stop_lat": 44.46128797,
      "stop_lon": 1.45403562,
      "zone_id": "",
      "stop_url": "",
      "location_type": 0,
      "parent_station": null,
      "stop_timezone": "",
      "wheelchair_boarding": 0,
      "import_id": "",
      "city_name": "",
      "direction_id": "",
      "ext_id": ""
   },
   "10189496": {
      "stop_code": "",
      "stop_name": "Thuyas",
      "stop_desc": "",
      "stop_lat": 44.4601489,
      "stop_lon": 1.45431956,
      "zone_id": "",
      "stop_url": "",
      "location_type": 0,
      "parent_station": null,
      "stop_timezone": "",
      "wheelchair_boarding": 0,
      "import_id": "",
      "city_name": "",
      "direction_id": "",
      "ext_id": ""
   },
   "10189497": {
      "stop_code": "",
      "stop_name": "De Magny-Monerville",
      "stop_desc": "",
      "stop_lat": 44.46264459,
      "stop_lon": 1.45546337,
      "zone_id": "",
      "stop_url": "",
      "location_type": 0,
      "parent_station": null,
      "stop_timezone": "",
      "wheelchair_boarding": 0,
      "import_id": "",
      "city_name": "",
      "direction_id": "",
      "ext_id": ""
   },
   "10189499": {
      "stop_code": "",
      "stop_name": "Général Leclerc",
      "stop_desc": "",
      "stop_lat": 44.46555088,
      "stop_lon": 1.46313201,
      "zone_id": "",
      "stop_url": "",
      "location_type": 0,
      "parent_station": null,
      "stop_timezone": "",
      "wheelchair_boarding": 0,
      "import_id": "",
      "city_name": "",
      "direction_id": "",
      "ext_id": ""
   },
   "10189501": {
      "stop_code": "",
      "stop_name": "Le Payrat",
      "stop_desc": "",
      "stop_lat": 44.46908772,
      "stop_lon": 1.46846234,
      "zone_id": "",
      "stop_url": "",
      "location_type": 0,
      "parent_station": null,
      "stop_timezone": "",
      "wheelchair_boarding": 0,
      "import_id": "",
      "city_name": "",
      "direction_id": "",
      "ext_id": ""
   },
   "10189502": {
      "stop_code": "",
      "stop_name": "Crêche",
      "stop_desc": "",
      "stop_lat": 44.46869001,
      "stop_lon": 1.47027437,
      "zone_id": "",
      "stop_url": "",
      "location_type": 0,
      "parent_station": null,
      "stop_timezone": "",
      "wheelchair_boarding": 0,
      "import_id": "",
      "city_name": "",
      "direction_id": "",
      "ext_id": ""
   },
   "10189503": {
      "stop_code": "",
      "stop_name": "Châtaignier",
      "stop_desc": "",
      "stop_lat": 44.46650335,
      "stop_lon": 1.47218669,
      "zone_id": "",
      "stop_url": "",
      "location_type": 0,
      "parent_station": null,
      "stop_timezone": "",
      "wheelchair_boarding": 0,
      "import_id": "",
      "city_name": "",
      "direction_id": "",
      "ext_id": ""
   },
   "10189504": {
      "stop_code": "",
      "stop_name": "Andrieux",
      "stop_desc": "",
      "stop_lat": 44.46560233,
      "stop_lon": 1.47362637,
      "zone_id": "",
      "stop_url": "",
      "location_type": 0,
      "parent_station": null,
      "stop_timezone": "",
      "wheelchair_boarding": 0,
      "import_id": "",
      "city_name": "",
      "direction_id": "",
      "ext_id": ""
   },
   "10189505": {
      "stop_code": "",
      "stop_name": "Route de Villefranche",
      "stop_desc": "",
      "stop_lat": 44.463293,
      "stop_lon": 1.472993,
      "zone_id": "",
      "stop_url": "",
      "location_type": 0,
      "parent_station": null,
      "stop_timezone": "",
      "wheelchair_boarding": 0,
      "import_id": "",
      "city_name": "",
      "direction_id": "",
      "ext_id": ""
   },
   "10189506": {
      "stop_code": "",
      "stop_name": "Cavaniès",
      "stop_desc": "",
      "stop_lat": 44.46170788,
      "stop_lon": 1.4752344,
      "zone_id": "",
      "stop_url": "",
      "location_type": 0,
      "parent_station": null,
      "stop_timezone": "",
      "wheelchair_boarding": 0,
      "import_id": "",
      "city_name": "",
      "direction_id": "",
      "ext_id": ""
   },
   "10189507": {
      "stop_code": "",
      "stop_name": "Ecole de Bégoux",
      "stop_desc": "",
      "stop_lat": 44.45983346,
      "stop_lon": 1.47443478,
      "zone_id": "",
      "stop_url": "",
      "location_type": 0,
      "parent_station": null,
      "stop_timezone": "",
      "wheelchair_boarding": 0,
      "import_id": "",
      "city_name": "",
      "direction_id": "",
      "ext_id": ""
   },
   "10189508": {
      "stop_code": "",
      "stop_name": "Bégoux",
      "stop_desc": "",
      "stop_lat": 44.45815314,
      "stop_lon": 1.47639544,
      "zone_id": "",
      "stop_url": "",
      "location_type": 0,
      "parent_station": null,
      "stop_timezone": "",
      "wheelchair_boarding": 0,
      "import_id": "",
      "city_name": "",
      "direction_id": "",
      "ext_id": ""
   },
   "10189509": {
      "stop_code": "",
      "stop_name": "Vignes",
      "stop_desc": "",
      "stop_lat": 44.4562511,
      "stop_lon": 1.47784402,
      "zone_id": "",
      "stop_url": "",
      "location_type": 0,
      "parent_station": null,
      "stop_timezone": "",
      "wheelchair_boarding": 0,
      "import_id": "",
      "city_name": "",
      "direction_id": "",
      "ext_id": ""
   },
   "10189510": {
      "stop_code": "",
      "stop_name": "Graves",
      "stop_desc": "",
      "stop_lat": 44.45683726,
      "stop_lon": 1.48013887,
      "zone_id": "",
      "stop_url": "",
      "location_type": 0,
      "parent_station": null,
      "stop_timezone": "",
      "wheelchair_boarding": 0,
      "import_id": "",
      "city_name": "",
      "direction_id": "",
      "ext_id": ""
   },
   "10189511": {
      "stop_code": "",
      "stop_name": "Etrier de Bégoux",
      "stop_desc": "",
      "stop_lat": 44.46995237,
      "stop_lon": 1.46116664,
      "zone_id": "",
      "stop_url": "",
      "location_type": 0,
      "parent_station": null,
      "stop_timezone": "",
      "wheelchair_boarding": 0,
      "import_id": "",
      "city_name": "",
      "direction_id": "",
      "ext_id": ""
   },
   "10189512": {
      "stop_code": "",
      "stop_name": "Terre Rouge",
      "stop_desc": "",
      "stop_lat": 44.467405,
      "stop_lon": 1.455447,
      "zone_id": "",
      "stop_url": "",
      "location_type": 0,
      "parent_station": null,
      "stop_timezone": "",
      "wheelchair_boarding": 0,
      "import_id": "",
      "city_name": "",
      "direction_id": "",
      "ext_id": ""
   },
   "10189513": {
      "stop_code": "",
      "stop_name": "E.M.L.",
      "stop_desc": "",
      "stop_lat": 44.46564,
      "stop_lon": 1.45061,
      "zone_id": "",
      "stop_url": "",
      "location_type": 0,
      "parent_station": null,
      "stop_timezone": "",
      "wheelchair_boarding": 0,
      "import_id": "",
      "city_name": "",
      "direction_id": "",
      "ext_id": ""
   },
   "10189514": {
      "stop_code": "",
      "stop_name": "Picasso",
      "stop_desc": "",
      "stop_lat": 44.46426369,
      "stop_lon": 1.45139231,
      "zone_id": "",
      "stop_url": "",
      "location_type": 0,
      "parent_station": null,
      "stop_timezone": "",
      "wheelchair_boarding": 0,
      "import_id": "",
      "city_name": "",
      "direction_id": "",
      "ext_id": ""
   },
   "10189515": {
      "stop_code": "",
      "stop_name": "Les Combettes",
      "stop_desc": "",
      "stop_lat": 44.47080372,
      "stop_lon": 1.41975066,
      "zone_id": "",
      "stop_url": "",
      "location_type": 0,
      "parent_station": null,
      "stop_timezone": "",
      "wheelchair_boarding": 0,
      "import_id": "",
      "city_name": "",
      "direction_id": "",
      "ext_id": ""
   },
   "10189516": {
      "stop_code": "",
      "stop_name": "Les Églantiers",
      "stop_desc": "",
      "stop_lat": 44.47104033,
      "stop_lon": 1.41631729,
      "zone_id": "",
      "stop_url": "",
      "location_type": 0,
      "parent_station": null,
      "stop_timezone": "",
      "wheelchair_boarding": 0,
      "import_id": "",
      "city_name": "",
      "direction_id": "",
      "ext_id": ""
   },
   "10189517": {
      "stop_code": "",
      "stop_name": "Les Escales",
      "stop_desc": "",
      "stop_lat": 44.4700612,
      "stop_lon": 1.41283694,
      "zone_id": "",
      "stop_url": "",
      "location_type": 0,
      "parent_station": null,
      "stop_timezone": "",
      "wheelchair_boarding": 0,
      "import_id": "",
      "city_name": "",
      "direction_id": "",
      "ext_id": ""
   },
   "10189518": {
      "stop_code": "",
      "stop_name": "Parcs des Sports",
      "stop_desc": "",
      "stop_lat": 44.4700651,
      "stop_lon": 1.41145407,
      "zone_id": "",
      "stop_url": "",
      "location_type": 0,
      "parent_station": null,
      "stop_timezone": "",
      "wheelchair_boarding": 0,
      "import_id": "",
      "city_name": "",
      "direction_id": "",
      "ext_id": ""
   },
   "10189519": {
      "stop_code": "",
      "stop_name": "Saint-Exupéry",
      "stop_desc": "",
      "stop_lat": 44.47112501,
      "stop_lon": 1.40992277,
      "zone_id": "",
      "stop_url": "",
      "location_type": 0,
      "parent_station": null,
      "stop_timezone": "",
      "wheelchair_boarding": 0,
      "import_id": "",
      "city_name": "",
      "direction_id": "",
      "ext_id": ""
   },
   "10189520": {
      "stop_code": "",
      "stop_name": "Petit Bois",
      "stop_desc": "",
      "stop_lat": 44.47314301,
      "stop_lon": 1.40713115,
      "zone_id": "",
      "stop_url": "",
      "location_type": 0,
      "parent_station": null,
      "stop_timezone": "",
      "wheelchair_boarding": 0,
      "import_id": "",
      "city_name": "",
      "direction_id": "",
      "ext_id": ""
   },
   "10189521": {
      "stop_code": "",
      "stop_name": "Mairie de Pradines",
      "stop_desc": "",
      "stop_lat": 44.4747928,
      "stop_lon": 1.40559848,
      "zone_id": "",
      "stop_url": "",
      "location_type": 0,
      "parent_station": null,
      "stop_timezone": "",
      "wheelchair_boarding": 0,
      "import_id": "",
      "city_name": "",
      "direction_id": "",
      "ext_id": ""
   },
   "10189522": {
      "stop_code": "",
      "stop_name": "Daniel Roques",
      "stop_desc": "",
      "stop_lat": 44.47719238,
      "stop_lon": 1.40350113,
      "zone_id": "",
      "stop_url": "",
      "location_type": 0,
      "parent_station": null,
      "stop_timezone": "",
      "wheelchair_boarding": 0,
      "import_id": "",
      "city_name": "",
      "direction_id": "",
      "ext_id": ""
   },
   "10189523": {
      "stop_code": "",
      "stop_name": "Bourg de Pradines",
      "stop_desc": "",
      "stop_lat": 44.47871716,
      "stop_lon": 1.40515504,
      "zone_id": "",
      "stop_url": "",
      "location_type": 0,
      "parent_station": null,
      "stop_timezone": "",
      "wheelchair_boarding": 0,
      "import_id": "",
      "city_name": "",
      "direction_id": "",
      "ext_id": ""
   },
   "10189524": {
      "stop_code": "",
      "stop_name": "Saint-Martial",
      "stop_desc": "",
      "stop_lat": 44.48297678,
      "stop_lon": 1.4015408,
      "zone_id": "",
      "stop_url": "",
      "location_type": 0,
      "parent_station": null,
      "stop_timezone": "",
      "wheelchair_boarding": 0,
      "import_id": "",
      "city_name": "",
      "direction_id": "",
      "ext_id": ""
   },
   "10189525": {
      "stop_code": "",
      "stop_name": "Chemin de l'Île",
      "stop_desc": "",
      "stop_lat": 44.48388222,
      "stop_lon": 1.40484292,
      "zone_id": "",
      "stop_url": "",
      "location_type": 0,
      "parent_station": null,
      "stop_timezone": "",
      "wheelchair_boarding": 0,
      "import_id": "",
      "city_name": "",
      "direction_id": "",
      "ext_id": ""
   },
   "10189526": {
      "stop_code": "",
      "stop_name": "Les Trémouls",
      "stop_desc": "",
      "stop_lat": 44.48548354,
      "stop_lon": 1.39534673,
      "zone_id": "",
      "stop_url": "",
      "location_type": 0,
      "parent_station": null,
      "stop_timezone": "",
      "wheelchair_boarding": 0,
      "import_id": "",
      "city_name": "",
      "direction_id": "",
      "ext_id": ""
   },
   "10189527": {
      "stop_code": "",
      "stop_name": "Pissobi",
      "stop_desc": "",
      "stop_lat": 44.48565328,
      "stop_lon": 1.39228031,
      "zone_id": "",
      "stop_url": "",
      "location_type": 0,
      "parent_station": null,
      "stop_timezone": "",
      "wheelchair_boarding": 0,
      "import_id": "",
      "city_name": "",
      "direction_id": "",
      "ext_id": ""
   },
   "10189528": {
      "stop_code": "",
      "stop_name": "Châtaigneraie",
      "stop_desc": "",
      "stop_lat": 44.46864901,
      "stop_lon": 1.40577174,
      "zone_id": "",
      "stop_url": "",
      "location_type": 0,
      "parent_station": null,
      "stop_timezone": "",
      "wheelchair_boarding": 0,
      "import_id": "",
      "city_name": "",
      "direction_id": "",
      "ext_id": ""
   },
   "10189529": {
      "stop_code": "",
      "stop_name": "Les Serres",
      "stop_desc": "",
      "stop_lat": 44.46547364,
      "stop_lon": 1.40858911,
      "zone_id": "",
      "stop_url": "",
      "location_type": 0,
      "parent_station": null,
      "stop_timezone": "",
      "wheelchair_boarding": 0,
      "import_id": "",
      "city_name": "",
      "direction_id": "",
      "ext_id": ""
   },
   "10189530": {
      "stop_code": "",
      "stop_name": "Le Pouget",
      "stop_desc": "",
      "stop_lat": 44.46634,
      "stop_lon": 1.41213,
      "zone_id": "",
      "stop_url": "",
      "location_type": 0,
      "parent_station": null,
      "stop_timezone": "",
      "wheelchair_boarding": 0,
      "import_id": "",
      "city_name": "",
      "direction_id": "",
      "ext_id": ""
   },
   "10189531": {
      "stop_code": "",
      "stop_name": "Carrefour de l'Europe",
      "stop_desc": "",
      "stop_lat": 44.46742294,
      "stop_lon": 1.41325822,
      "zone_id": "",
      "stop_url": "",
      "location_type": 0,
      "parent_station": null,
      "stop_timezone": "",
      "wheelchair_boarding": 0,
      "import_id": "",
      "city_name": "",
      "direction_id": "",
      "ext_id": ""
   },
   "10189532": {
      "stop_code": "",
      "stop_name": "Le Rédelou",
      "stop_desc": "",
      "stop_lat": 44.46314624,
      "stop_lon": 1.41570678,
      "zone_id": "",
      "stop_url": "",
      "location_type": 0,
      "parent_station": null,
      "stop_timezone": "",
      "wheelchair_boarding": 0,
      "import_id": "",
      "city_name": "",
      "direction_id": "",
      "ext_id": ""
   },
   "10189533": {
      "stop_code": "",
      "stop_name": "P+R Chartreux",
      "stop_desc": "",
      "stop_lat": 44.438831,
      "stop_lon": 1.440953,
      "zone_id": "",
      "stop_url": "",
      "location_type": 0,
      "parent_station": null,
      "stop_timezone": "",
      "wheelchair_boarding": 0,
      "import_id": "",
      "city_name": "",
      "direction_id": "",
      "ext_id": ""
   },
   "10189534": {
      "stop_code": "",
      "stop_name": "Chartreuse",
      "stop_desc": "",
      "stop_lat": 44.43884793,
      "stop_lon": 1.44128361,
      "zone_id": "",
      "stop_url": "",
      "location_type": 0,
      "parent_station": null,
      "stop_timezone": "",
      "wheelchair_boarding": 0,
      "import_id": "",
      "city_name": "",
      "direction_id": "",
      "ext_id": ""
   },
   "10189535": {
      "stop_code": "",
      "stop_name": "Pompiers",
      "stop_desc": "",
      "stop_lat": 44.43548629,
      "stop_lon": 1.4436205,
      "zone_id": "",
      "stop_url": "",
      "location_type": 0,
      "parent_station": null,
      "stop_timezone": "",
      "wheelchair_boarding": 0,
      "import_id": "",
      "city_name": "",
      "direction_id": "",
      "ext_id": ""
   },
   "10189536": {
      "stop_code": "",
      "stop_name": "Combe St-Julien",
      "stop_desc": "",
      "stop_lat": 44.43088553,
      "stop_lon": 1.44424576,
      "zone_id": "",
      "stop_url": "",
      "location_type": 0,
      "parent_station": null,
      "stop_timezone": "",
      "wheelchair_boarding": 0,
      "import_id": "",
      "city_name": "",
      "direction_id": "",
      "ext_id": ""
   },
   "10189537": {
      "stop_code": "",
      "stop_name": "Combe d'Arnis",
      "stop_desc": "",
      "stop_lat": 44.42555609,
      "stop_lon": 1.44135061,
      "zone_id": "",
      "stop_url": "",
      "location_type": 0,
      "parent_station": null,
      "stop_timezone": "",
      "wheelchair_boarding": 0,
      "import_id": "",
      "city_name": "",
      "direction_id": "",
      "ext_id": ""
   },
   "10189538": {
      "stop_code": "",
      "stop_name": "RN20",
      "stop_desc": "",
      "stop_lat": 44.42270464,
      "stop_lon": 1.43933498,
      "zone_id": "",
      "stop_url": "",
      "location_type": 0,
      "parent_station": null,
      "stop_timezone": "",
      "wheelchair_boarding": 0,
      "import_id": "",
      "city_name": "",
      "direction_id": "",
      "ext_id": ""
   },
   "10189539": {
      "stop_code": "",
      "stop_name": "La Beyne",
      "stop_desc": "",
      "stop_lat": 44.41784189,
      "stop_lon": 1.4391201,
      "zone_id": "",
      "stop_url": "",
      "location_type": 0,
      "parent_station": null,
      "stop_timezone": "",
      "wheelchair_boarding": 0,
      "import_id": "",
      "city_name": "",
      "direction_id": "",
      "ext_id": ""
   },
   "10189540": {
      "stop_code": "",
      "stop_name": "Roc de l'Agasse",
      "stop_desc": "",
      "stop_lat": 44.415484,
      "stop_lon": 1.437104,
      "zone_id": "",
      "stop_url": "",
      "location_type": 0,
      "parent_station": null,
      "stop_timezone": "",
      "wheelchair_boarding": 0,
      "import_id": "",
      "city_name": "",
      "direction_id": "",
      "ext_id": ""
   },
   "10191236": {
      "stop_code": "",
      "stop_name": "Les Ramondies",
      "stop_desc": "",
      "stop_lat": 44.46444657,
      "stop_lon": 1.47569776,
      "zone_id": "",
      "stop_url": "",
      "location_type": 0,
      "parent_station": null,
      "stop_timezone": "",
      "wheelchair_boarding": 0,
      "import_id": "",
      "city_name": "",
      "direction_id": "",
      "ext_id": ""
   },
   "10191242": {
      "stop_code": "",
      "stop_name": "Colombier",
      "stop_desc": "",
      "stop_lat": 44.46721835,
      "stop_lon": 1.45244837,
      "zone_id": "",
      "stop_url": "",
      "location_type": 0,
      "parent_station": null,
      "stop_timezone": "",
      "wheelchair_boarding": 0,
      "import_id": "",
      "city_name": "",
      "direction_id": "",
      "ext_id": ""
   },
   "10191247": {
      "stop_code": "",
      "stop_name": "Centre Universitaire",
      "stop_desc": "",
      "stop_lat": 44.45285271,
      "stop_lon": 1.446805,
      "zone_id": "",
      "stop_url": "",
      "location_type": 0,
      "parent_station": null,
      "stop_timezone": "",
      "wheelchair_boarding": 0,
      "import_id": "",
      "city_name": "",
      "direction_id": "",
      "ext_id": ""
   },
   "10191283": {
      "stop_code": "",
      "stop_name": "P+R Labéraudie",
      "stop_desc": "",
      "stop_lat": 44.46245572,
      "stop_lon": 1.42162442,
      "zone_id": "",
      "stop_url": "",
      "location_type": 0,
      "parent_station": null,
      "stop_timezone": "",
      "wheelchair_boarding": 0,
      "import_id": "",
      "city_name": "",
      "direction_id": "",
      "ext_id": ""
   },
   "10191343": {
      "stop_code": "",
      "stop_name": "Rome",
      "stop_desc": "",
      "stop_lat": 44.45835893,
      "stop_lon": 1.45235181,
      "zone_id": "",
      "stop_url": "",
      "location_type": 0,
      "parent_station": null,
      "stop_timezone": "",
      "wheelchair_boarding": 0,
      "import_id": "",
      "city_name": "",
      "direction_id": "",
      "ext_id": ""
   },
   "10191346": {
      "stop_code": "",
      "stop_name": "Gendarmerie",
      "stop_desc": "",
      "stop_lat": 44.462213,
      "stop_lon": 1.45682,
      "zone_id": "",
      "stop_url": "",
      "location_type": 0,
      "parent_station": null,
      "stop_timezone": "",
      "wheelchair_boarding": 0,
      "import_id": "",
      "city_name": "",
      "direction_id": "",
      "ext_id": ""
   },
   "10191367": {
      "stop_code": "",
      "stop_name": "Cabessut",
      "stop_desc": "",
      "stop_lat": 44.4496973,
      "stop_lon": 1.44475579,
      "zone_id": "",
      "stop_url": "",
      "location_type": 0,
      "parent_station": null,
      "stop_timezone": "",
      "wheelchair_boarding": 0,
      "import_id": "",
      "city_name": "",
      "direction_id": "",
      "ext_id": ""
   },
   "10191368": {
      "stop_code": "",
      "stop_name": "Foch",
      "stop_desc": "",
      "stop_lat": 44.44736128,
      "stop_lon": 1.44210577,
      "zone_id": "",
      "stop_url": "",
      "location_type": 0,
      "parent_station": null,
      "stop_timezone": "",
      "wheelchair_boarding": 0,
      "import_id": "",
      "city_name": "",
      "direction_id": "",
      "ext_id": ""
   },
   "10462995": {
      "stop_code": "",
      "stop_name": "Mairie de Cahors",
      "stop_desc": "",
      "stop_lat": 44.44603,
      "stop_lon": 1.441234,
      "zone_id": "",
      "stop_url": "",
      "location_type": 0,
      "parent_station": 10479764,
      "stop_timezone": "",
      "wheelchair_boarding": 0,
      "import_id": "",
      "city_name": "",
      "direction_id": "",
      "ext_id": ""
   },
   "10479764": {
      "stop_code": "",
      "stop_name": "Mairie de Cahors",
      "stop_desc": "",
      "stop_lat": 44.44611472,
      "stop_lon": 1.4411509,
      "zone_id": "",
      "stop_url": "",
      "location_type": 1,
      "parent_station": null,
      "stop_timezone": "",
      "wheelchair_boarding": 0,
      "import_id": "",
      "city_name": "",
      "direction_id": "",
      "ext_id": ""
   }
}